{
    "network": {
        "format-wifi": "󰤨",
        "format-ethernet": "󰈀",
        "format-linked": "󰤩",
        "format-disconnected": "󰤭",
        "tooltip": true,
        "tooltip-format": "Not connected",
        "tooltip-format-ethernet": "IFACE:\t{ifname}\nSSID:\t{essid}\nADDR:\t{ipaddr}\nGWADDR:\t{gwaddr}\nSTRENGTH:\t{signalStrength} ({strengthdBm}dBm)\nFREQ:\t{frequency}\n\nBW UP:\t{bandwidthUpBits}bps\nBW DN:\t{bandwidthDownBits}",
        "tooltip-format-wifi": "IFACE:\t{ifname}\nADDR:\t{ipaddr}\nGWADDR:\t{gwaddr}\n\nBW UP:\t{bandwidthUpBytes}bps\nBW DN:\t{bandwidthDownBytes}",
        "on-click": "lock wifi -- term --transient -- iwctl"
    },

    "bluetooth": {
        "format": "",
        "format-disabled": "󰂲",
        "format-connected": "{num_connections} ",
        "tooltip": "true",
        "tooltip-format": "{controller_alias}\t{controller_address}\n\n{num_connections} connected",
        "tooltip-format-connected": "{controller_alias}\t{controller_address}\n\n{num_connections} connected\n\n{device_enumerate}",
        "tooltip-format-enumerate-connected": "{device_alias}\t{device_address}",
        "tooltip-format-enumerate-connected-battery": "{device_alias}\t{device_address}\t{device_battery_percentage}%",
        "on-click": "lock bluetooth -- term --transient -- bluetoothctl"
    }
}
